…
## Prepare dataset for analysis with lme4


```r
dat <- as_tibble(raz2005) %>% 
  mutate(
    Participant = as.factor(Participant), 
    #Time = as.factor(Time), 
    Obs = as.factor(1:n()))
dat
```

```
# A tibble: 144 x 5
  Participant  Time   Age Volume Obs  
  <fct>       <int> <dbl>  <dbl> <fct>
1 1               1  24.0   168. 1    
2 1               2  29.3   158. 2    
3 2               1  21.0   164. 3    
# ... with 141 more rows
```

```r
bdat <- tidyr::gather(dat, tname, tvalue, Age, Volume) # *b*ivariate version of `dat`
bdat
```

```
# A tibble: 288 x 5
  Participant  Time Obs   tname tvalue
  <fct>       <int> <fct> <chr>  <dbl>
1 1               1 1     Age     24.0
2 1               2 2     Age     29.3
3 2               1 3     Age     21.0
# ... with 285 more rows
```
…
```r
ranef(bmod) %>% names
```

```
[1] "Obs"         "Participant"
```

```r
ranef(bmod)[["Participant"]] %>% as_tibble
```

```
# A tibble: 72 x 2
  tnameAge tnameVolume
*    <dbl>       <dbl>
1    -27.2        27.8
2    -30.4        23.5
3    -27.5        14.3
# ... with 69 more rows
```

```r
ranef(bmod)[["Obs"]] %>% as_tibble
```

```
# A tibble: 144 x 2
  tnameAge tnameVolume
*    <dbl>       <dbl>
1    -4.04        7.10
2     1.19       -3.42
3    -3.83        7.46
# ... with 141 more rows
```
…
